Mercari Price Suggestion | Husain's Blog
…
data_test_xgb <- xgb.DMatrix(data_test_sparse)

Model Evaluation Data Test

We have finished preparing new data. Now, we can move to prediction step and evaluation model. Let’s use the generic predict() function to predict with the model we’ve constructed, on the test set data to get a sense of it’s performance on unseen data:

pred_test <- predict(model, data_test_xgb)

result_test <- data_test %>% 
  select(actual = price) %>% 
  mutate(prediction = pred_test)

result_test

#> # A tibble: 1,593 x 2
#>    actual prediction
#>     <dbl>      <dbl>
#>  1     11       14.2
#>  2     66       60.1
#>  3     18       24.3
#>  4     39       48.1
#>  5     24       25.5
#>  6    305      318. 
#>  7     12       18.6
#>  8      5       13.4
#>  9     14       18.0
#> 10    350      254. 
#> # … with 1,583 more rows
…
